{
  "crawler": {
    "num_thread": "auto",
    "crawl_depth": "7",
    "max_page": "200",
    "max_data": "5",
    "period_timeout": "10",
    "num_period": "3"
  },

  "frontier": {
    "frontier_size": "1000"
  },

  "url": {
    "max_url_length": "128",
    "max_url_per_page": "20"
  },

  "seed": [
    "https://vnexpress.net/",
    "https://dantri.com.vn/",
    "https://kenh14.vn"
  ],

  "exception": [
    "https://www.facebook.com/"
  ]
}
